{
  "aerialway_11": {
    "height": 15,
    "pixelRatio": 1,
    "width": 15,
    "x": 424,
    "y": 0
  },
  "aerialway_15": {
    "height": 19,
    "pixelRatio": 1,
    "width": 19,
    "x": 220,
    "y": 225
  },
  "airfield_11": {
    "height": 15,
    "pixelRatio": 1,
    "width": 15,
    "x": 439,
    "y": 0
  },
  "airfield_15": {
    "height": 19,
    "pixelRatio": 1,
    "width": 19,
    "x": 240,
    "y": 85
  },
  "airport_11": {
    "height": 15,
    "pixelRatio": 1,
    "width": 15,
    "x": 454,
    "y": 0
  },
  "airport_15": {
    "height": 19,
    "pixelRatio": 1,
    "width": 19,
    "x": 259,
    "y": 85
  },
  "alcohol_shop_11": {
    "height": 16,
    "pixelRatio": 1,
    "width": 16,
    "x": 291,
    "y": 145
  },
  "alcohol_shop_15": {
    "height": 20,
    "pixelRatio": 1,
    "width": 20,
    "x": 105,
    "y": 64
  },
  "america_football_11": {
    "height": 16,
    "pixelRatio": 1,
    "width": 16,
    "x": 307,
    "y": 145
  },
  "america_football_15": {
    "height": 20,
    "pixelRatio": 1,
    "width": 20,
    "x": 0,
    "y": 85
  },
  "amusement_park_11": {
    "height": 16,
    "pixelRatio": 1,
    "width": 16,
    "x": 323,
    "y": 145
  },
  "amusement_park_15": {
    "height": 20,
    "pixelRatio": 1,
    "width": 20,
    "x": 20,
    "y": 85
  },
  "aquarium_11": {
    "height": 16,
    "pixelRatio": 1,
    "width": 16,
    "x": 339,
    "y": 145
  },
  "aquarium_15": {
    "height": 20,
    "pixelRatio": 1,
    "width": 20,
    "x": 40,
    "y": 85
  },
  "art_gallery_11": {
    "height": 16,
    "pixelRatio": 1,
    "width": 16,
    "x": 355,
    "y": 145
  },
  "art_gallery_15": {
    "height": 20,
    "pixelRatio": 1,
    "width": 20,
    "x": 60,
    "y": 85
  },
  "atm2-11": {
    "height": 15,
    "pixelRatio": 1,
    "width": 15,
    "x": 469,
    "y": 0
  },
  "atm2-15": {
    "height": 19,
    "pixelRatio": 1,
    "width": 19,
    "x": 278,
    "y": 85
  },
  "atm2_11": {
    "height": 16,
    "pixelRatio": 1,
    "width": 16,
    "x": 371,
    "y": 145
  },
  "atm2_15": {
    "height": 20,
    "pixelRatio": 1,
    "width": 20,
    "x": 80,
    "y": 85
  },
  "attraction_11": {
    "height": 16,
    "pixelRatio": 1,
    "width": 16,
    "x": 387,
    "y": 145
  },
  "attraction_15": {
    "height": 20,
    "pixelRatio": 1,
    "width": 20,
    "x": 100,
    "y": 85
  },
  "bakery_11": {
    "height": 16,
    "pixelRatio": 1,
    "width": 16,
    "x": 403,
    "y": 145
  },
  "bakery_15": {
    "height": 20,
    "pixelRatio": 1,
    "width": 20,
    "x": 0,
    "y": 105
  },
  "bank_11": {
    "height": 16,
    "pixelRatio": 1,
    "width": 16,
    "x": 419,
    "y": 145
  },
  "bank_15": {
    "height": 20,
    "pixelRatio": 1,
    "width": 20,
    "x": 20,
    "y": 105
  },
  "bar_11": {
    "height": 16,
    "pixelRatio": 1,
    "width": 16,
    "x": 435,
    "y": 145
  },
  "bar_15": {
    "height": 20,
    "pixelRatio": 1,
    "width": 20,
    "x": 40,
    "y": 105
  },
  "baseball_11": {
    "height": 16,
    "pixelRatio": 1,
    "width": 16,
    "x": 451,
    "y": 145
  },
  "baseball_15": {
    "height": 20,
    "pixelRatio": 1,
    "width": 20,
    "x": 60,
    "y": 105
  },
  "basketball_11": {
    "height": 16,
    "pixelRatio": 1,
    "width": 16,
    "x": 467,
    "y": 145
  },
  "basketball_15": {
    "height": 20,
    "pixelRatio": 1,
    "width": 20,
    "x": 80,
    "y": 105
  },
  "beer_11": {
    "height": 16,
    "pixelRatio": 1,
    "width": 16,
    "x": 483,
    "y": 145
  },
  "beer_15": {
    "height": 20,
    "pixelRatio": 1,
    "width": 20,
    "x": 100,
    "y": 105
  },
  "bicycle_11": {
    "height": 16,
    "pixelRatio": 1,
    "width": 16,
    "x": 240,
    "y": 165
  },
  "bicycle_15": {
    "height": 20,
    "pixelRatio": 1,
    "width": 20,
    "x": 120,
    "y": 85
  },
  "bicycle_parked-11": {
    "height": 15,
    "pixelRatio": 1,
    "width": 15,
    "x": 484,
    "y": 0
  },
  "bicycle_parked-15": {
    "height": 19,
    "pixelRatio": 1,
    "width": 19,
    "x": 297,
    "y": 85
  },
  "bicycle_parked_11": {
    "height": 15,
    "pixelRatio": 1,
    "width": 15,
    "x": 0,
    "y": 245
  },
  "bicycle_parked_15": {
    "height": 19,
    "pixelRatio": 1,
    "width": 19,
    "x": 316,
    "y": 85
  },
  "bicycle_rental-11": {
    "height": 15,
    "pixelRatio": 1,
    "width": 15,
    "x": 15,
    "y": 245
  },
  "bicycle_rental-15": {
    "height": 19,
    "pixelRatio": 1,
    "width": 19,
    "x": 335,
    "y": 85
  },
  "bicycle_rental_11": {
    "height": 15,
    "pixelRatio": 1,
    "width": 15,
    "x": 30,
    "y": 245
  },
  "bicycle_rental_15": {
    "height": 19,
    "pixelRatio": 1,
    "width": 19,
    "x": 354,
    "y": 85
  },
  "bicycle_repair-11": {
    "height": 15,
    "pixelRatio": 1,
    "width": 15,
    "x": 45,
    "y": 245
  },
  "bicycle_repair-15": {
    "height": 19,
    "pixelRatio": 1,
    "width": 19,
    "x": 373,
    "y": 85
  },
  "bicycle_repair_11": {
    "height": 15,
    "pixelRatio": 1,
    "width": 15,
    "x": 60,
    "y": 245
  },
  "bicycle_repair_15": {
    "height": 19,
    "pixelRatio": 1,
    "width": 19,
    "x": 392,
    "y": 85
  },
  "building_11": {
    "height": 16,
    "pixelRatio": 1,
    "width": 16,
    "x": 256,
    "y": 165
  },
  "building_15": {
    "height": 20,
    "pixelRatio": 1,
    "width": 20,
    "x": 140,
    "y": 85
  },
  "bus_11": {
    "height": 15,
    "pixelRatio": 1,
    "width": 15,
    "x": 75,
    "y": 245
  },
  "bus_15": {
    "height": 19,
    "pixelRatio": 1,
    "width": 19,
    "x": 411,
    "y": 85
  },
  "butcher_11": {
    "height": 16,
    "pixelRatio": 1,
    "width": 16,
    "x": 272,
    "y": 165
  },
  "butcher_15": {
    "height": 20,
    "pixelRatio": 1,
    "width": 20,
    "x": 160,
    "y": 85
  },
  "cafe_11": {
    "height": 16,
    "pixelRatio": 1,
    "width": 16,
    "x": 288,
    "y": 165
  },
  "cafe_15": {
    "height": 20,
    "pixelRatio": 1,
    "width": 20,
    "x": 180,
    "y": 85
  },
  "campsite_11": {
    "height": 16,
    "pixelRatio": 1,
    "width": 16,
    "x": 304,
    "y": 165
  },
  "campsite_15": {
    "height": 20,
    "pixelRatio": 1,
    "width": 20,
    "x": 200,
    "y": 85
  },
  "car_11": {
    "height": 15,
    "pixelRatio": 1,
    "width": 15,
    "x": 90,
    "y": 245
  },
  "car_15": {
    "height": 19,
    "pixelRatio": 1,
    "width": 19,
    "x": 430,
    "y": 85
  },
  "castle_11": {
    "height": 16,
    "pixelRatio": 1,
    "width": 16,
    "x": 320,
    "y": 165
  },
  "castle_15": {
    "height": 20,
    "pixelRatio": 1,
    "width": 20,
    "x": 220,
    "y": 85
  },
  "cemetery_11": {
    "height": 16,
    "pixelRatio": 1,
    "width": 16,
    "x": 336,
    "y": 165
  },
  "cemetery_15": {
    "height": 20,
    "pixelRatio": 1,
    "width": 20,
    "x": 120,
    "y": 105
  },
  "cinema_11": {
    "height": 16,
    "pixelRatio": 1,
    "width": 16,
    "x": 352,
    "y": 165
  },
  "cinema_15": {
    "height": 20,
    "pixelRatio": 1,
    "width": 20,
    "x": 140,
    "y": 105
  },
  "circle-stroked_11": {
    "height": 17,
    "pixelRatio": 1,
    "width": 17,
    "x": 468,
    "y": 125
  },
  "circle-stroked_15": {
    "height": 21,
    "pixelRatio": 1,
    "width": 21,
    "x": 0,
    "y": 64
  },
  "circle_11": {
    "height": 16,
    "pixelRatio": 1,
    "width": 16,
    "x": 368,
    "y": 165
  },
  "circle_15": {
    "height": 20,
    "pixelRatio": 1,
    "width": 20,
    "x": 160,
    "y": 105
  },
  "circle_stroked_11": {
    "height": 16,
    "pixelRatio": 1,
    "width": 16,
    "x": 384,
    "y": 165
  },
  "circle_stroked_15": {
    "height": 20,
    "pixelRatio": 1,
    "width": 20,
    "x": 180,
    "y": 105
  },
  "clothing_store_11": {
    "height": 16,
    "pixelRatio": 1,
    "width": 16,
    "x": 400,
    "y": 165
  },
  "clothing_store_15": {
    "height": 20,
    "pixelRatio": 1,
    "width": 20,
    "x": 200,
    "y": 105
  },
  "college_11": {
    "height": 16,
    "pixelRatio": 1,
    "width": 16,
    "x": 416,
    "y": 165
  },
  "college_15": {
    "height": 20,
    "pixelRatio": 1,
    "width": 20,
    "x": 220,
    "y": 105
  },
  "commercial_11": {
    "height": 16,
    "pixelRatio": 1,
    "width": 16,
    "x": 432,
    "y": 165
  },
  "commercial_15": {
    "height": 20,
    "pixelRatio": 1,
    "width": 20,
    "x": 125,
    "y": 64
  },
  "cricket_11": {
    "height": 16,
    "pixelRatio": 1,
    "width": 16,
    "x": 448,
    "y": 165
  },
  "cricket_15": {
    "height": 20,
    "pixelRatio": 1,
    "width": 20,
    "x": 145,
    "y": 64
  },
  "cross_11": {
    "height": 16,
    "pixelRatio": 1,
    "width": 16,
    "x": 464,
    "y": 165
  },
  "cross_15": {
    "height": 20,
    "pixelRatio": 1,
    "width": 20,
    "x": 165,
    "y": 64
  },
  "dam_11": {
    "height": 16,
    "pixelRatio": 1,
    "width": 16,
    "x": 480,
    "y": 165
  },
  "dam_15": {
    "height": 20,
    "pixelRatio": 1,
    "width": 20,
    "x": 185,
    "y": 64
  },
  "danger_11": {
    "height": 16,
    "pixelRatio": 1,
    "width": 16,
    "x": 496,
    "y": 165
  },
  "danger_15": {
    "height": 20,
    "pixelRatio": 1,
    "width": 20,
    "x": 205,
    "y": 64
  },
  "deer_11": {
    "height": 16,
    "pixelRatio": 1,
    "width": 16,
    "x": 240,
    "y": 185
  },
  "deer_15": {
    "height": 20,
    "pixelRatio": 1,
    "width": 20,
    "x": 225,
    "y": 64
  },
  "default_1": {
    "height": 18,
    "pixelRatio": 1,
    "width": 18,
    "x": 259,
    "y": 125
  },
  "default_2": {
    "height": 18,
    "pixelRatio": 1,
    "width": 25,
    "x": 277,
    "y": 125
  },
  "default_3": {
    "height": 18,
    "pixelRatio": 1,
    "width": 32,
    "x": 302,
    "y": 125
  },
  "default_4": {
    "height": 18,
    "pixelRatio": 1,
    "width": 39,
    "x": 334,
    "y": 125
  },
  "default_5": {
    "height": 18,
    "pixelRatio": 1,
    "width": 45,
    "x": 373,
    "y": 125
  },
  "default_6": {
    "height": 18,
    "pixelRatio": 1,
    "width": 50,
    "x": 418,
    "y": 125
  },
  "dentist_11": {
    "height": 16,
    "pixelRatio": 1,
    "width": 16,
    "x": 256,
    "y": 185
  },
  "dentist_15": {
    "height": 20,
    "pixelRatio": 1,
    "width": 20,
    "x": 128,
    "y": 0
  },
  "doctor_11": {
    "height": 16,
    "pixelRatio": 1,
    "width": 16,
    "x": 272,
    "y": 185
  },
  "doctor_15": {
    "height": 20,
    "pixelRatio": 1,
    "width": 20,
    "x": 148,
    "y": 0
  },
  "dog_park_11": {
    "height": 16,
    "pixelRatio": 1,
    "width": 16,
    "x": 288,
    "y": 185
  },
  "dog_park_15": {
    "height": 20,
    "pixelRatio": 1,
    "width": 20,
    "x": 168,
    "y": 0
  },
  "dot_10": {
    "height": 10,
    "pixelRatio": 1,
    "width": 10,
    "x": 399,
    "y": 245
  },
  "dot_11": {
    "height": 11,
    "pixelRatio": 1,
    "width": 11,
    "x": 388,
    "y": 245
  },
  "dot_9": {
    "height": 9,
    "pixelRatio": 1,
    "width": 9,
    "x": 409,
    "y": 245
  },
  "drinking-water_11": {
    "height": 13,
    "pixelRatio": 1,
    "width": 13,
    "x": 375,
    "y": 245
  },
  "drinking_water_11": {
    "height": 17,
    "pixelRatio": 1,
    "width": 17,
    "x": 485,
    "y": 125
  },
  "drinking_water_15": {
    "height": 21,
    "pixelRatio": 1,
    "width": 21,
    "x": 21,
    "y": 64
  },
  "embassy_11": {
    "height": 16,
    "pixelRatio": 1,
    "width": 16,
    "x": 304,
    "y": 185
  },
  "embassy_15": {
    "height": 20,
    "pixelRatio": 1,
    "width": 20,
    "x": 188,
    "y": 0
  },
  "entrance_11": {
    "height": 15,
    "pixelRatio": 1,
    "width": 15,
    "x": 105,
    "y": 245
  },
  "entrance_15": {
    "height": 19,
    "pixelRatio": 1,
    "width": 19,
    "x": 449,
    "y": 85
  },
  "fast_food_11": {
    "height": 16,
    "pixelRatio": 1,
    "width": 16,
    "x": 320,
    "y": 185
  },
  "fast_food_15": {
    "height": 20,
    "pixelRatio": 1,
    "width": 20,
    "x": 208,
    "y": 0
  },
  "ferry_11": {
    "height": 15,
    "pixelRatio": 1,
    "width": 15,
    "x": 120,
    "y": 245
  },
  "ferry_15": {
    "height": 19,
    "pixelRatio": 1,
    "width": 19,
    "x": 468,
    "y": 85
  },
  "fire-station_11": {
    "height": 15,
    "pixelRatio": 1,
    "width": 15,
    "x": 135,
    "y": 245
  },
  "fire-station_15": {
    "height": 19,
    "pixelRatio": 1,
    "width": 19,
    "x": 487,
    "y": 85
  },
  "fire_station_11": {
    "height": 16,
    "pixelRatio": 1,
    "width": 16,
    "x": 336,
    "y": 185
  },
  "fire_station_15": {
    "height": 20,
    "pixelRatio": 1,
    "width": 20,
    "x": 228,
    "y": 0
  },
  "fuel_11": {
    "height": 15,
    "pixelRatio": 1,
    "width": 15,
    "x": 150,
    "y": 245
  },
  "fuel_15": {
    "height": 19,
    "pixelRatio": 1,
    "width": 19,
    "x": 240,
    "y": 105
  },
  "garden_11": {
    "height": 16,
    "pixelRatio": 1,
    "width": 16,
    "x": 352,
    "y": 185
  },
  "garden_15": {
    "height": 20,
    "pixelRatio": 1,
    "width": 20,
    "x": 0,
    "y": 125
  },
  "gate-11": {
    "height": 15,
    "pixelRatio": 1,
    "width": 15,
    "x": 165,
    "y": 245
  },
  "gate-15": {
    "height": 19,
    "pixelRatio": 1,
    "width": 19,
    "x": 259,
    "y": 105
  },
  "gate_11": {
    "height": 16,
    "pixelRatio": 1,
    "width": 16,
    "x": 368,
    "y": 185
  },
  "gate_15": {
    "height": 20,
    "pixelRatio": 1,
    "width": 20,
    "x": 20,
    "y": 125
  },
  "gift_11": {
    "height": 16,
    "pixelRatio": 1,
    "width": 16,
    "x": 384,
    "y": 185
  },
  "gift_15": {
    "height": 20,
    "pixelRatio": 1,
    "width": 20,
    "x": 40,
    "y": 125
  },
  "golf_11": {
    "height": 16,
    "pixelRatio": 1,
    "width": 16,
    "x": 400,
    "y": 185
  },
  "golf_15": {
    "height": 20,
    "pixelRatio": 1,
    "width": 20,
    "x": 60,
    "y": 125
  },
  "grocery_11": {
    "height": 16,
    "pixelRatio": 1,
    "width": 16,
    "x": 416,
    "y": 185
  },
  "grocery_15": {
    "height": 20,
    "pixelRatio": 1,
    "width": 20,
    "x": 80,
    "y": 125
  },
  "hairdresser_11": {
    "height": 16,
    "pixelRatio": 1,
    "width": 16,
    "x": 432,
    "y": 185
  },
  "hairdresser_15": {
    "height": 20,
    "pixelRatio": 1,
    "width": 20,
    "x": 100,
    "y": 125
  },
  "harbor_11": {
    "height": 15,
    "pixelRatio": 1,
    "width": 15,
    "x": 180,
    "y": 245
  },
  "harbor_15": {
    "height": 19,
    "pixelRatio": 1,
    "width": 19,
    "x": 278,
    "y": 105
  },
  "heart_11": {
    "height": 16,
    "pixelRatio": 1,
    "width": 16,
    "x": 448,
    "y": 185
  },
  "heart_15": {
    "height": 20,
    "pixelRatio": 1,
    "width": 20,
    "x": 120,
    "y": 125
  },
  "heliport_11": {
    "height": 15,
    "pixelRatio": 1,
    "width": 15,
    "x": 195,
    "y": 245
  },
  "heliport_15": {
    "height": 19,
    "pixelRatio": 1,
    "width": 19,
    "x": 297,
    "y": 105
  },
  "hospital_11": {
    "height": 16,
    "pixelRatio": 1,
    "width": 16,
    "x": 464,
    "y": 185
  },
  "hospital_15": {
    "height": 20,
    "pixelRatio": 1,
    "width": 20,
    "x": 140,
    "y": 125
  },
  "ice_cream_11": {
    "height": 16,
    "pixelRatio": 1,
    "width": 16,
    "x": 480,
    "y": 185
  },
  "ice_cream_15": {
    "height": 20,
    "pixelRatio": 1,
    "width": 20,
    "x": 160,
    "y": 125
  },
  "industry_11": {
    "height": 16,
    "pixelRatio": 1,
    "width": 16,
    "x": 496,
    "y": 185
  },
  "industry_15": {
    "height": 20,
    "pixelRatio": 1,
    "width": 20,
    "x": 180,
    "y": 125
  },
  "info_board-11": {
    "height": 15,
    "pixelRatio": 1,
    "width": 15,
    "x": 210,
    "y": 245
  },
  "info_board-15": {
    "height": 19,
    "pixelRatio": 1,
    "width": 19,
    "x": 316,
    "y": 105
  },
  "info_board_11": {
    "height": 16,
    "pixelRatio": 1,
    "width": 16,
    "x": 240,
    "y": 205
  },
  "info_board_15": {
    "height": 20,
    "pixelRatio": 1,
    "width": 20,
    "x": 200,
    "y": 125
  },
  "information_11": {
    "height": 16,
    "pixelRatio": 1,
    "width": 16,
    "x": 256,
    "y": 205
  },
  "information_15": {
    "height": 20,
    "pixelRatio": 1,
    "width": 20,
    "x": 220,
    "y": 125
  },
  "laundry_11": {
    "height": 16,
    "pixelRatio": 1,
    "width": 16,
    "x": 272,
    "y": 205
  },
  "laundry_15": {
    "height": 20,
    "pixelRatio": 1,
    "width": 20,
    "x": 0,
    "y": 145
  },
  "library_11": {
    "height": 16,
    "pixelRatio": 1,
    "width": 16,
    "x": 288,
    "y": 205
  },
  "library_15": {
    "height": 20,
    "pixelRatio": 1,
    "width": 20,
    "x": 20,
    "y": 145
  },
  "lift_gate-11": {
    "height": 15,
    "pixelRatio": 1,
    "width": 15,
    "x": 225,
    "y": 245
  },
  "lift_gate-15": {
    "height": 19,
    "pixelRatio": 1,
    "width": 19,
    "x": 335,
    "y": 105
  },
  "lift_gate_11": {
    "height": 16,
    "pixelRatio": 1,
    "width": 16,
    "x": 304,
    "y": 205
  },
  "lift_gate_15": {
    "height": 20,
    "pixelRatio": 1,
    "width": 20,
    "x": 40,
    "y": 145
  },
  "lighthouse_11": {
    "height": 16,
    "pixelRatio": 1,
    "width": 16,
    "x": 320,
    "y": 205
  },
  "lighthouse_15": {
    "height": 20,
    "pixelRatio": 1,
    "width": 20,
    "x": 60,
    "y": 145
  },
  "lodging_11": {
    "height": 16,
    "pixelRatio": 1,
    "width": 16,
    "x": 336,
    "y": 205
  },
  "lodging_15": {
    "height": 20,
    "pixelRatio": 1,
    "width": 20,
    "x": 80,
    "y": 145
  },
  "marker_11": {
    "height": 16,
    "pixelRatio": 1,
    "width": 16,
    "x": 352,
    "y": 205
  },
  "marker_15": {
    "height": 20,
    "pixelRatio": 1,
    "width": 20,
    "x": 100,
    "y": 145
  },
  "monument_11": {
    "height": 16,
    "pixelRatio": 1,
    "width": 16,
    "x": 368,
    "y": 205
  },
  "monument_15": {
    "height": 20,
    "pixelRatio": 1,
    "width": 20,
    "x": 120,
    "y": 145
  },
  "mountain_11": {
    "height": 16,
    "pixelRatio": 1,
    "width": 16,
    "x": 384,
    "y": 205
  },
  "mountain_15": {
    "height": 20,
    "pixelRatio": 1,
    "width": 20,
    "x": 140,
    "y": 145
  },
  "museum_11": {
    "height": 16,
    "pixelRatio": 1,
    "width": 16,
    "x": 400,
    "y": 205
  },
  "museum_15": {
    "height": 20,
    "pixelRatio": 1,
    "width": 20,
    "x": 160,
    "y": 145
  },
  "music_11": {
    "height": 16,
    "pixelRatio": 1,
    "width": 16,
    "x": 416,
    "y": 205
  },
  "music_15": {
    "height": 20,
    "pixelRatio": 1,
    "width": 20,
    "x": 180,
    "y": 145
  },
  "park_11": {
    "height": 16,
    "pixelRatio": 1,
    "width": 16,
    "x": 432,
    "y": 205
  },
  "park_15": {
    "height": 20,
    "pixelRatio": 1,
    "width": 20,
    "x": 200,
    "y": 145
  },
  "parking_11": {
    "height": 15,
    "pixelRatio": 1,
    "width": 15,
    "x": 240,
    "y": 245
  },
  "parking_15": {
    "height": 19,
    "pixelRatio": 1,
    "width": 19,
    "x": 354,
    "y": 105
  },
  "parking_garage_11": {
    "height": 15,
    "pixelRatio": 1,
    "width": 15,
    "x": 255,
    "y": 245
  },
  "parking_garage_15": {
    "height": 19,
    "pixelRatio": 1,
    "width": 19,
    "x": 373,
    "y": 105
  },
  "pedestrian_polygon": {
    "height": 64,
    "pixelRatio": 1,
    "width": 64,
    "x": 0,
    "y": 0
  },
  "pharmacy_11": {
    "height": 16,
    "pixelRatio": 1,
    "width": 16,
    "x": 448,
    "y": 205
  },
  "pharmacy_15": {
    "height": 20,
    "pixelRatio": 1,
    "width": 20,
    "x": 220,
    "y": 145
  },
  "picnic_site_11": {
    "height": 16,
    "pixelRatio": 1,
    "width": 16,
    "x": 464,
    "y": 205
  },
  "picnic_site_15": {
    "height": 20,
    "pixelRatio": 1,
    "width": 20,
    "x": 0,
    "y": 165
  },
  "pitch_11": {
    "height": 16,
    "pixelRatio": 1,
    "width": 16,
    "x": 480,
    "y": 205
  },
  "pitch_15": {
    "height": 20,
    "pixelRatio": 1,
    "width": 20,
    "x": 20,
    "y": 165
  },
  "place_of_worship_11": {
    "height": 16,
    "pixelRatio": 1,
    "width": 16,
    "x": 496,
    "y": 205
  },
  "place_of_worship_15": {
    "height": 20,
    "pixelRatio": 1,
    "width": 20,
    "x": 40,
    "y": 165
  },
  "playground_11": {
    "height": 16,
    "pixelRatio": 1,
    "width": 16,
    "x": 239,
    "y": 225
  },
  "playground_15": {
    "height": 20,
    "pixelRatio": 1,
    "width": 20,
    "x": 60,
    "y": 165
  },
  "police_11": {
    "height": 16,
    "pixelRatio": 1,
    "width": 16,
    "x": 255,
    "y": 225
  },
  "police_15": {
    "height": 20,
    "pixelRatio": 1,
    "width": 20,
    "x": 80,
    "y": 165
  },
  "post_11": {
    "height": 16,
    "pixelRatio": 1,
    "width": 16,
    "x": 271,
    "y": 225
  },
  "post_15": {
    "height": 20,
    "pixelRatio": 1,
    "width": 20,
    "x": 100,
    "y": 165
  },
  "prison_11": {
    "height": 16,
    "pixelRatio": 1,
    "width": 16,
    "x": 287,
    "y": 225
  },
  "prison_15": {
    "height": 20,
    "pixelRatio": 1,
    "width": 20,
    "x": 120,
    "y": 165
  },
  "railway_11": {
    "height": 15,
    "pixelRatio": 1,
    "width": 15,
    "x": 270,
    "y": 245
  },
  "railway_15": {
    "height": 19,
    "pixelRatio": 1,
    "width": 19,
    "x": 392,
    "y": 105
  },
  "railway_light_11": {
    "height": 15,
    "pixelRatio": 1,
    "width": 15,
    "x": 285,
    "y": 245
  },
  "railway_light_15": {
    "height": 19,
    "pixelRatio": 1,
    "width": 19,
    "x": 411,
    "y": 105
  },
  "railway_metro_11": {
    "height": 15,
    "pixelRatio": 1,
    "width": 15,
    "x": 300,
    "y": 245
  },
  "railway_metro_15": {
    "height": 19,
    "pixelRatio": 1,
    "width": 19,
    "x": 430,
    "y": 105
  },
  "ranger_station_11": {
    "height": 16,
    "pixelRatio": 1,
    "width": 16,
    "x": 303,
    "y": 225
  },
  "ranger_station_15": {
    "height": 20,
    "pixelRatio": 1,
    "width": 20,
    "x": 140,
    "y": 165
  },
  "recycling-11": {
    "height": 15,
    "pixelRatio": 1,
    "width": 15,
    "x": 315,
    "y": 245
  },
  "recycling-15": {
    "height": 19,
    "pixelRatio": 1,
    "width": 19,
    "x": 449,
    "y": 105
  },
  "recycling_11": {
    "height": 16,
    "pixelRatio": 1,
    "width": 16,
    "x": 319,
    "y": 225
  },
  "recycling_15": {
    "height": 20,
    "pixelRatio": 1,
    "width": 20,
    "x": 160,
    "y": 165
  },
  "religious_christian_11": {
    "height": 16,
    "pixelRatio": 1,
    "width": 16,
    "x": 335,
    "y": 225
  },
  "religious_christian_15": {
    "height": 20,
    "pixelRatio": 1,
    "width": 20,
    "x": 180,
    "y": 165
  },
  "religious_jewish_11": {
    "height": 16,
    "pixelRatio": 1,
    "width": 16,
    "x": 351,
    "y": 225
  },
  "religious_jewish_15": {
    "height": 20,
    "pixelRatio": 1,
    "width": 20,
    "x": 200,
    "y": 165
  },
  "religious_muslim_11": {
    "height": 16,
    "pixelRatio": 1,
    "width": 16,
    "x": 367,
    "y": 225
  },
  "religious_muslim_15": {
    "height": 20,
    "pixelRatio": 1,
    "width": 20,
    "x": 220,
    "y": 165
  },
  "restaurant_11": {
    "height": 16,
    "pixelRatio": 1,
    "width": 16,
    "x": 383,
    "y": 225
  },
  "restaurant_15": {
    "height": 20,
    "pixelRatio": 1,
    "width": 20,
    "x": 0,
    "y": 185
  },
  "roadblock_11": {
    "height": 16,
    "pixelRatio": 1,
    "width": 16,
    "x": 399,
    "y": 225
  },
  "roadblock_15": {
    "height": 20,
    "pixelRatio": 1,
    "width": 20,
    "x": 20,
    "y": 185
  },
  "rocket_11": {
    "height": 16,
    "pixelRatio": 1,
    "width": 16,
    "x": 415,
    "y": 225
  },
  "rocket_15": {
    "height": 20,
    "pixelRatio": 1,
    "width": 20,
    "x": 40,
    "y": 185
  },
  "ruins_11": {
    "height": 16,
    "pixelRatio": 1,
    "width": 16,
    "x": 431,
    "y": 225
  },
  "ruins_15": {
    "height": 20,
    "pixelRatio": 1,
    "width": 20,
    "x": 60,
    "y": 185
  },
  "saddle-11": {
    "height": 15,
    "pixelRatio": 1,
    "width": 15,
    "x": 330,
    "y": 245
  },
  "saddle-15": {
    "height": 19,
    "pixelRatio": 1,
    "width": 19,
    "x": 468,
    "y": 105
  },
  "saddle_11": {
    "height": 16,
    "pixelRatio": 1,
    "width": 16,
    "x": 447,
    "y": 225
  },
  "saddle_15": {
    "height": 20,
    "pixelRatio": 1,
    "width": 20,
    "x": 80,
    "y": 185
  },
  "school_11": {
    "height": 16,
    "pixelRatio": 1,
    "width": 16,
    "x": 463,
    "y": 225
  },
  "school_15": {
    "height": 20,
    "pixelRatio": 1,
    "width": 20,
    "x": 100,
    "y": 185
  },
  "shelter_11": {
    "height": 16,
    "pixelRatio": 1,
    "width": 16,
    "x": 479,
    "y": 225
  },
  "shelter_15": {
    "height": 20,
    "pixelRatio": 1,
    "width": 20,
    "x": 120,
    "y": 185
  },
  "shop_11": {
    "height": 16,
    "pixelRatio": 1,
    "width": 16,
    "x": 495,
    "y": 225
  },
  "shop_15": {
    "height": 20,
    "pixelRatio": 1,
    "width": 20,
    "x": 140,
    "y": 185
  },
  "skateboarding-11": {
    "height": 15,
    "pixelRatio": 1,
    "width": 15,
    "x": 345,
    "y": 245
  },
  "skateboarding-15": {
    "height": 19,
    "pixelRatio": 1,
    "width": 19,
    "x": 487,
    "y": 105
  },
  "skateboarding_11": {
    "height": 16,
    "pixelRatio": 1,
    "width": 16,
    "x": 245,
    "y": 64
  },
  "skateboarding_15": {
    "height": 20,
    "pixelRatio": 1,
    "width": 20,
    "x": 160,
    "y": 185
  },
  "skiing_11": {
    "height": 16,
    "pixelRatio": 1,
    "width": 16,
    "x": 261,
    "y": 64
  },
  "skiing_15": {
    "height": 20,
    "pixelRatio": 1,
    "width": 20,
    "x": 180,
    "y": 185
  },
  "soccer_11": {
    "height": 16,
    "pixelRatio": 1,
    "width": 16,
    "x": 277,
    "y": 64
  },
  "soccer_15": {
    "height": 20,
    "pixelRatio": 1,
    "width": 20,
    "x": 200,
    "y": 185
  },
  "square-stroke_11": {
    "height": 17,
    "pixelRatio": 1,
    "width": 17,
    "x": 240,
    "y": 145
  },
  "square-stroke_15": {
    "height": 21,
    "pixelRatio": 1,
    "width": 21,
    "x": 42,
    "y": 64
  },
  "square_11": {
    "height": 16,
    "pixelRatio": 1,
    "width": 16,
    "x": 293,
    "y": 64
  },
  "square_15": {
    "height": 20,
    "pixelRatio": 1,
    "width": 20,
    "x": 220,
    "y": 185
  },
  "square_stroke_11": {
    "height": 16,
    "pixelRatio": 1,
    "width": 16,
    "x": 309,
    "y": 64
  },
  "square_stroke_15": {
    "height": 20,
    "pixelRatio": 1,
    "width": 20,
    "x": 0,
    "y": 205
  },
  "stadium_11": {
    "height": 16,
    "pixelRatio": 1,
    "width": 16,
    "x": 325,
    "y": 64
  },
  "stadium_15": {
    "height": 20,
    "pixelRatio": 1,
    "width": 20,
    "x": 20,
    "y": 205
  },
  "star-stroke_11": {
    "height": 17,
    "pixelRatio": 1,
    "width": 17,
    "x": 257,
    "y": 145
  },
  "star-stroke_15": {
    "height": 21,
    "pixelRatio": 1,
    "width": 21,
    "x": 63,
    "y": 64
  },
  "star_11": {
    "height": 16,
    "pixelRatio": 1,
    "width": 16,
    "x": 341,
    "y": 64
  },
  "star_15": {
    "height": 20,
    "pixelRatio": 1,
    "width": 20,
    "x": 40,
    "y": 205
  },
  "star_stroke_11": {
    "height": 16,
    "pixelRatio": 1,
    "width": 16,
    "x": 357,
    "y": 64
  },
  "star_stroke_15": {
    "height": 20,
    "pixelRatio": 1,
    "width": 20,
    "x": 60,
    "y": 205
  },
  "suitcase_11": {
    "height": 16,
    "pixelRatio": 1,
    "width": 16,
    "x": 373,
    "y": 64
  },
  "suitcase_15": {
    "height": 20,
    "pixelRatio": 1,
    "width": 20,
    "x": 80,
    "y": 205
  },
  "sushi_11": {
    "height": 16,
    "pixelRatio": 1,
    "width": 16,
    "x": 389,
    "y": 64
  },
  "sushi_15": {
    "height": 20,
    "pixelRatio": 1,
    "width": 20,
    "x": 100,
    "y": 205
  },
  "swimming_11": {
    "height": 16,
    "pixelRatio": 1,
    "width": 16,
    "x": 405,
    "y": 64
  },
  "swimming_15": {
    "height": 20,
    "pixelRatio": 1,
    "width": 20,
    "x": 120,
    "y": 205
  },
  "telephone_11": {
    "height": 16,
    "pixelRatio": 1,
    "width": 16,
    "x": 421,
    "y": 64
  },
  "telephone_15": {
    "height": 20,
    "pixelRatio": 1,
    "width": 20,
    "x": 140,
    "y": 205
  },
  "tennis_11": {
    "height": 16,
    "pixelRatio": 1,
    "width": 16,
    "x": 437,
    "y": 64
  },
  "tennis_15": {
    "height": 20,
    "pixelRatio": 1,
    "width": 20,
    "x": 160,
    "y": 205
  },
  "theatre_11": {
    "height": 16,
    "pixelRatio": 1,
    "width": 16,
    "x": 453,
    "y": 64
  },
  "theatre_15": {
    "height": 20,
    "pixelRatio": 1,
    "width": 20,
    "x": 180,
    "y": 205
  },
  "toilet_11": {
    "height": 16,
    "pixelRatio": 1,
    "width": 16,
    "x": 469,
    "y": 64
  },
  "toilet_15": {
    "height": 20,
    "pixelRatio": 1,
    "width": 20,
    "x": 200,
    "y": 205
  },
  "toll_booth_11": {
    "height": 16,
    "pixelRatio": 1,
    "width": 16,
    "x": 485,
    "y": 64
  },
  "toll_booth_15": {
    "height": 20,
    "pixelRatio": 1,
    "width": 20,
    "x": 220,
    "y": 205
  },
  "town-hall_11": {
    "height": 15,
    "pixelRatio": 1,
    "width": 15,
    "x": 360,
    "y": 245
  },
  "town-hall_15": {
    "height": 19,
    "pixelRatio": 1,
    "width": 19,
    "x": 240,
    "y": 125
  },
  "town_hall_11": {
    "height": 16,
    "pixelRatio": 1,
    "width": 16,
    "x": 248,
    "y": 0
  },
  "town_hall_15": {
    "height": 20,
    "pixelRatio": 1,
    "width": 20,
    "x": 0,
    "y": 225
  },
  "triangle_11": {
    "height": 16,
    "pixelRatio": 1,
    "width": 16,
    "x": 264,
    "y": 0
  },
  "triangle_15": {
    "height": 20,
    "pixelRatio": 1,
    "width": 20,
    "x": 20,
    "y": 225
  },
  "triangle_stroked_11": {
    "height": 16,
    "pixelRatio": 1,
    "width": 16,
    "x": 280,
    "y": 0
  },
  "triangle_stroked_15": {
    "height": 20,
    "pixelRatio": 1,
    "width": 20,
    "x": 40,
    "y": 225
  },
  "veterinary_11": {
    "height": 16,
    "pixelRatio": 1,
    "width": 16,
    "x": 296,
    "y": 0
  },
  "veterinary_15": {
    "height": 20,
    "pixelRatio": 1,
    "width": 20,
    "x": 60,
    "y": 225
  },
  "viewpoint_11": {
    "height": 16,
    "pixelRatio": 1,
    "width": 16,
    "x": 312,
    "y": 0
  },
  "viewpoint_15": {
    "height": 20,
    "pixelRatio": 1,
    "width": 20,
    "x": 80,
    "y": 225
  },
  "volcano_11": {
    "height": 16,
    "pixelRatio": 1,
    "width": 16,
    "x": 328,
    "y": 0
  },
  "volcano_15": {
    "height": 20,
    "pixelRatio": 1,
    "width": 20,
    "x": 100,
    "y": 225
  },
  "warehouse_11": {
    "height": 16,
    "pixelRatio": 1,
    "width": 16,
    "x": 344,
    "y": 0
  },
  "warehouse_15": {
    "height": 20,
    "pixelRatio": 1,
    "width": 20,
    "x": 120,
    "y": 225
  },
  "waste_basket_11": {
    "height": 16,
    "pixelRatio": 1,
    "width": 16,
    "x": 360,
    "y": 0
  },
  "waste_basket_15": {
    "height": 20,
    "pixelRatio": 1,
    "width": 20,
    "x": 140,
    "y": 225
  },
  "water_11": {
    "height": 17,
    "pixelRatio": 1,
    "width": 17,
    "x": 274,
    "y": 145
  },
  "water_15": {
    "height": 21,
    "pixelRatio": 1,
    "width": 21,
    "x": 84,
    "y": 64
  },
  "wetland_11": {
    "height": 16,
    "pixelRatio": 1,
    "width": 16,
    "x": 376,
    "y": 0
  },
  "wetland_15": {
    "height": 20,
    "pixelRatio": 1,
    "width": 20,
    "x": 160,
    "y": 225
  },
  "wheelchair_11": {
    "height": 16,
    "pixelRatio": 1,
    "width": 16,
    "x": 392,
    "y": 0
  },
  "wheelchair_15": {
    "height": 20,
    "pixelRatio": 1,
    "width": 20,
    "x": 180,
    "y": 225
  },
  "wilderness_polygon": {
    "height": 64,
    "pixelRatio": 1,
    "width": 64,
    "x": 64,
    "y": 0
  },
  "zoo_11": {
    "height": 16,
    "pixelRatio": 1,
    "width": 16,
    "x": 408,
    "y": 0
  },
  "zoo_15": {
    "height": 20,
    "pixelRatio": 1,
    "width": 20,
    "x": 200,
    "y": 225
  }
}